{
  "lastKnownName": "Ballistic_Planet",
  "lastLogin": 1489827319133,
  "lastLogout": 1489827306315,
  "lastIP": "/50.53.6.57",
  "firstJoin": 1489826825290,
  "startedFirstJoin": false,
  "fly": false,
  "vanish": false,
  "ignoreList": [],
  "mail": [],
  "invulnerable": false,
  "notes": [],
  "isFrozen": false,
  "warnings": [],
  "jailOnNextLogin": false,
  "lastLocation": {
    "world": "869e551e-326b-4fdf-94c9-dff748db3128",
    "rotx": 0.0,
    "rotz": 0.0,
    "roty": 0.0,
    "x": -68.70657920710764,
    "y": 71.0,
    "z": -844.8239320505322
  }
}
