{
  "path": "vanilla/plants/potato_plant.json",
  "enabled": true,
  "id": "potato_plant",
  "plant_name": "Potato",
  "seed_name": "Potato Seeds",
  "seed_items": [
    {
      "item": "minecraft:potato",
      "meta": 0,
      "tags": "",
      "ignoreMeta": false,
      "ignoreTags": [
        "*"
      ],
      "useOreDict": false
    }
  ],
  "description": {
    "translations": {},
    "default": "Po-ta-toes! Boil them, mash them, stick them in a stew."
  },
  "growth_chance": 0.9,
  "bonemeal": true,
  "tier": 1,
  "weedable": false,
  "aggressive": false,
  "spread_chance": 0.1,
  "spawn_chance": 0.0,
  "products": {
    "products": [
      {
        "min": 1,
        "max": 4,
        "chance": 0.95,
        "required": true,
        "item": "minecraft:potato",
        "meta": 0,
        "tags": "",
        "ignoreMeta": false,
        "ignoreTags": [],
        "useOreDict": false
      },
      {
        "min": 1,
        "max": 2,
        "chance": 0.02,
        "required": true,
        "item": "minecraft:poisonous_potato",
        "meta": 0,
        "tags": "",
        "ignoreMeta": false,
        "ignoreTags": [],
        "useOreDict": false
      }
    ]
  },
  "requirement": {
    "min_light": 10,
    "max_light": 16,
    "soils": [
      "farmland_soil"
    ],
    "bases": [],
    "nearby": {}
  },
  "texture": {
    "render_type": "hash",
    "seed_texture": "agricraft:items/seedPotato",
    "plant_textures": [
      "agricraft:blocks/cropPotato1",
      "agricraft:blocks/cropPotato1",
      "agricraft:blocks/cropPotato1",
      "agricraft:blocks/cropPotato2",
      "agricraft:blocks/cropPotato2",
      "agricraft:blocks/cropPotato3",
      "agricraft:blocks/cropPotato3",
      "agricraft:blocks/cropPotato4"
    ]
  }
}
